<?xml version="1.0" encoding="UTF-8"?>
<kml xmlns="http://www.opengis.net/kml/2.2">
<GroundOverlay><name>AI8P_85.png</name><color>88ffffff</color><Icon>
<href>AI8P_85.png</href>
<viewBoundScale>0.75</viewBoundScale></Icon><LatLonBox>
<north> 41.62356</north>
<south> 40.4987</south>
<east>-80.94054</east>
<west>-82.43238</west>
</LatLonBox></GroundOverlay></kml>
